%YAML 1.1
%TAG !u! tag:unity3d.com,2011:
--- !u!74 &7400000
AnimationClip:
  m_ObjectHideFlags: 0
  m_PrefabParentObject: {fileID: 0}
  m_PrefabInternal: {fileID: 0}
  m_Name: Attack
  serializedVersion: 6
  m_Legacy: 0
  m_Compressed: 0
  m_UseHighQualityCurve: 1
  m_RotationCurves: []
  m_CompressedRotationCurves: []
  m_EulerCurves: []
  m_PositionCurves: []
  m_ScaleCurves: []
  m_FloatCurves: []
  m_PPtrCurves:
  - curve:
    - time: 0
      value: {fileID: 21300000, guid: d9719bc0546e2454c8bf32f368ec1a0a, type: 3}
    - time: 0.083333336
      value: {fileID: 21300000, guid: de607e9a790207b43a97ccacdca1b862, type: 3}
    - time: 0.16666667
      value: {fileID: 21300000, guid: 3c0e481cd9774f446a20b52f70f5a41f, type: 3}
    - time: 0.25
      value: {fileID: 21300000, guid: eaf05d88e39ab394d86bbc1b2d3240e2, type: 3}
    - time: 0.33333334
      value: {fileID: 21300000, guid: 524fd4f3fca8dd742adeaaf6770ebeab, type: 3}
    - time: 0.41666666
      value: {fileID: 21300000, guid: c8418fd34d4aefb47b916a05882d1b2f, type: 3}
    - time: 0.5
      value: {fileID: 21300000, guid: 44fc54462d556e746bda4e1b1ae69551, type: 3}
    - time: 0.5833333
      value: {fileID: 21300000, guid: 4edf897e9a597604488297048b8202cc, type: 3}
    - time: 0.6666667
      value: {fileID: 21300000, guid: fc6618dc7bddcfd488072fdde178f8b1, type: 3}
    - time: 0.75
      value: {fileID: 21300000, guid: 8f6ef9a6c08e6114f90c8b8f1f68f877, type: 3}
    attribute: m_Sprite
    path: 
    classID: 212
    script: {fileID: 0}
  m_SampleRate: 12
  m_WrapMode: 0
  m_Bounds:
    m_Center: {x: 0, y: 0, z: 0}
    m_Extent: {x: 0, y: 0, z: 0}
  m_ClipBindingConstant:
    genericBindings:
    - serializedVersion: 2
      path: 0
      attribute: 0
      script: {fileID: 0}
      typeID: 212
      customType: 23
      isPPtrCurve: 1
    pptrCurveMapping:
    - {fileID: 21300000, guid: d9719bc0546e2454c8bf32f368ec1a0a, type: 3}
    - {fileID: 21300000, guid: de607e9a790207b43a97ccacdca1b862, type: 3}
    - {fileID: 21300000, guid: 3c0e481cd9774f446a20b52f70f5a41f, type: 3}
    - {fileID: 21300000, guid: eaf05d88e39ab394d86bbc1b2d3240e2, type: 3}
    - {fileID: 21300000, guid: 524fd4f3fca8dd742adeaaf6770ebeab, type: 3}
    - {fileID: 21300000, guid: c8418fd34d4aefb47b916a05882d1b2f, type: 3}
    - {fileID: 21300000, guid: 44fc54462d556e746bda4e1b1ae69551, type: 3}
    - {fileID: 21300000, guid: 4edf897e9a597604488297048b8202cc, type: 3}
    - {fileID: 21300000, guid: fc6618dc7bddcfd488072fdde178f8b1, type: 3}
    - {fileID: 21300000, guid: 8f6ef9a6c08e6114f90c8b8f1f68f877, type: 3}
  m_AnimationClipSettings:
    serializedVersion: 2
    m_AdditiveReferencePoseClip: {fileID: 0}
    m_AdditiveReferencePoseTime: 0
    m_StartTime: 0
    m_StopTime: 0.8333333
    m_OrientationOffsetY: 0
    m_Level: 0
    m_CycleOffset: 0
    m_HasAdditiveReferencePose: 0
    m_LoopTime: 1
    m_LoopBlend: 0
    m_LoopBlendOrientation: 0
    m_LoopBlendPositionY: 0
    m_LoopBlendPositionXZ: 0
    m_KeepOriginalOrientation: 0
    m_KeepOriginalPositionY: 1
    m_KeepOriginalPositionXZ: 0
    m_HeightFromFeet: 0
    m_Mirror: 0
  m_EditorCurves: []
  m_EulerEditorCurves: []
  m_HasGenericRootTransform: 0
  m_HasMotionFloatCurves: 0
  m_GenerateMotionCurves: 0
  m_Events: []
