%YAML 1.1
%TAG !u! tag:unity3d.com,2011:
--- !u!74 &7400000
AnimationClip:
  m_ObjectHideFlags: 0
  m_PrefabParentObject: {fileID: 0}
  m_PrefabInternal: {fileID: 0}
  m_Name: Dead
  serializedVersion: 6
  m_Legacy: 0
  m_Compressed: 0
  m_UseHighQualityCurve: 1
  m_RotationCurves: []
  m_CompressedRotationCurves: []
  m_EulerCurves: []
  m_PositionCurves: []
  m_ScaleCurves: []
  m_FloatCurves: []
  m_PPtrCurves:
  - curve:
    - time: 0
      value: {fileID: 21300000, guid: 3352f938a12d72640abf1691f9897956, type: 3}
    - time: 0.083333336
      value: {fileID: 21300000, guid: d02af77620f363848a209ba009555444, type: 3}
    - time: 0.16666667
      value: {fileID: 21300000, guid: 0bef13ca289e61e40830e7941ff975ed, type: 3}
    - time: 0.25
      value: {fileID: 21300000, guid: bea31df6d677c5a42ae8e86d57bbf80a, type: 3}
    - time: 0.33333334
      value: {fileID: 21300000, guid: ba7706ecd3e0ece45b4805c232406b20, type: 3}
    - time: 0.41666666
      value: {fileID: 21300000, guid: 26eaff5619de49249a46d7e34050bad9, type: 3}
    - time: 0.5
      value: {fileID: 21300000, guid: 6ef3f78adc2d4ae4f97dd0c1d0598f68, type: 3}
    - time: 0.5833333
      value: {fileID: 21300000, guid: 5b74a85a153d08f419401f2863fc921a, type: 3}
    - time: 0.6666667
      value: {fileID: 21300000, guid: 4c14f487a356cd5498ce304f195c39c0, type: 3}
    - time: 0.75
      value: {fileID: 21300000, guid: 80dc74294d02dd74e91d84ccf78bd000, type: 3}
    attribute: m_Sprite
    path: 
    classID: 212
    script: {fileID: 0}
  m_SampleRate: 12
  m_WrapMode: 0
  m_Bounds:
    m_Center: {x: 0, y: 0, z: 0}
    m_Extent: {x: 0, y: 0, z: 0}
  m_ClipBindingConstant:
    genericBindings:
    - serializedVersion: 2
      path: 0
      attribute: 0
      script: {fileID: 0}
      typeID: 212
      customType: 23
      isPPtrCurve: 1
    pptrCurveMapping:
    - {fileID: 21300000, guid: 3352f938a12d72640abf1691f9897956, type: 3}
    - {fileID: 21300000, guid: d02af77620f363848a209ba009555444, type: 3}
    - {fileID: 21300000, guid: 0bef13ca289e61e40830e7941ff975ed, type: 3}
    - {fileID: 21300000, guid: bea31df6d677c5a42ae8e86d57bbf80a, type: 3}
    - {fileID: 21300000, guid: ba7706ecd3e0ece45b4805c232406b20, type: 3}
    - {fileID: 21300000, guid: 26eaff5619de49249a46d7e34050bad9, type: 3}
    - {fileID: 21300000, guid: 6ef3f78adc2d4ae4f97dd0c1d0598f68, type: 3}
    - {fileID: 21300000, guid: 5b74a85a153d08f419401f2863fc921a, type: 3}
    - {fileID: 21300000, guid: 4c14f487a356cd5498ce304f195c39c0, type: 3}
    - {fileID: 21300000, guid: 80dc74294d02dd74e91d84ccf78bd000, type: 3}
  m_AnimationClipSettings:
    serializedVersion: 2
    m_AdditiveReferencePoseClip: {fileID: 0}
    m_AdditiveReferencePoseTime: 0
    m_StartTime: 0
    m_StopTime: 0.8333333
    m_OrientationOffsetY: 0
    m_Level: 0
    m_CycleOffset: 0
    m_HasAdditiveReferencePose: 0
    m_LoopTime: 1
    m_LoopBlend: 0
    m_LoopBlendOrientation: 0
    m_LoopBlendPositionY: 0
    m_LoopBlendPositionXZ: 0
    m_KeepOriginalOrientation: 0
    m_KeepOriginalPositionY: 1
    m_KeepOriginalPositionXZ: 0
    m_HeightFromFeet: 0
    m_Mirror: 0
  m_EditorCurves: []
  m_EulerEditorCurves: []
  m_HasGenericRootTransform: 0
  m_HasMotionFloatCurves: 0
  m_GenerateMotionCurves: 0
  m_Events:
  - time: 0.75
    functionName: Restart
    data: 
    objectReferenceParameter: {fileID: 0}
    floatParameter: 0
    intParameter: 0
    messageOptions: 0
